cpsc420-lab1/build/dump.vcd
$date
	Tue Jan 28 22:05:46 2025
$end
$version
	Icarus Verilog
$end
$timescale
	1s
$end
$scope module imuldiv_DivReqMsgFromBits $end
$var wire 65 ! bits [64:0] $end
$var wire 1 " func $end
$var wire 32 # b [31:0] $end
$var wire 32 $ a [31:0] $end
$upscope $end
$scope module imuldiv_DivReqMsgToBits $end
$var wire 32 % a [31:0] $end
$var wire 32 & b [31:0] $end
$var wire 1 ' func $end
$var wire 65 ( bits [64:0] $end
$upscope $end
$scope module imuldiv_DivReqMsgToStr $end
$var wire 65 ) msg [64:0] $end
$var wire 1 * func $end
$var wire 32 + b [31:0] $end
$var wire 32 , a [31:0] $end
$var parameter 1 - fn_signed $end
$var parameter 1 . fn_unsigned $end
$var reg 160 / full_str [159:0] $end
$var reg 16 0 tiny_str [15:0] $end
$upscope $end
$scope module imuldiv_MulDivReqMsgFromBits $end
$var wire 67 1 bits [66:0] $end
$var wire 3 2 func [2:0] $end
$var wire 32 3 b [31:0] $end
$var wire 32 4 a [31:0] $end
$upscope $end
$scope module imuldiv_MulDivReqMsgToBits $end
$var wire 32 5 a [31:0] $end
$var wire 32 6 b [31:0] $end
$var wire 3 7 func [2:0] $end
$var wire 67 8 bits [66:0] $end
$upscope $end
$scope module imuldiv_MulDivReqMsgToStr $end
$var wire 67 9 msg [66:0] $end
$var wire 3 : func [2:0] $end
$var wire 32 ; b [31:0] $end
$var wire 32 < a [31:0] $end
$var parameter 3 = div $end
$var parameter 3 > divu $end
$var parameter 3 ? mul $end
$var parameter 3 @ rem $end
$var parameter 3 A remu $end
$var reg 160 B full_str [159:0] $end
$var reg 16 C tiny_str [15:0] $end
$upscope $end
$scope module sim $end
$var wire 1 D muldivreq_go $end
$var wire 1 E muldivresp_go $end
$var wire 1 F sink_rdy $end
$var wire 1 G src_rdy $end
$var wire 1 H sink_val $end
$var wire 64 I sink_msg [63:0] $end
$var reg 1 J busy $end
$var reg 1 K clk $end
$var reg 32 L cycle_count [31:0] $end
$var reg 1024 M op_type [1023:0] $end
$var reg 1 N reset $end
$var reg 32 O src_msg_a [31:0] $end
$var reg 32 P src_msg_b [31:0] $end
$var reg 3 Q src_msg_fn [2:0] $end
$var reg 1 R src_val $end
$scope module imuldiv $end
$var wire 1 K clk $end
$var wire 1 S divreq_msg_fn $end
$var wire 1 T divreq_val $end
$var wire 32 U muldivreq_msg_a [31:0] $end
$var wire 32 V muldivreq_msg_b [31:0] $end
$var wire 3 W muldivreq_msg_fn [2:0] $end
$var wire 1 G muldivreq_rdy $end
$var wire 1 R muldivreq_val $end
$var wire 1 F muldivresp_rdy $end
$var wire 1 H muldivresp_val $end
$var wire 1 X mulreq_val $end
$var wire 1 N reset $end
$var wire 1 Y mulresp_val $end
$var wire 64 Z mulresp_msg_result [63:0] $end
$var wire 1 [ mulreq_rdy $end
$var wire 64 \ muldivresp_msg_result [63:0] $end
$var wire 1 ] divresp_val $end
$var wire 64 ^ divresp_msg_result [63:0] $end
$var wire 1 _ divreq_rdy $end
$scope module idiv $end
$var wire 1 K clk $end
$var wire 32 ` divreq_msg_a [31:0] $end
$var wire 32 a divreq_msg_b [31:0] $end
$var wire 1 S divreq_msg_fn $end
$var wire 1 T divreq_val $end
$var wire 1 F divresp_rdy $end
$var wire 1 N reset $end
$var wire 1 b perform_shift_op_div $end
$var wire 1 c perform_load_div $end
$var wire 1 ] divresp_val $end
$var wire 64 d divresp_msg_result [63:0] $end
$var wire 1 _ divreq_rdy $end
$var wire 1 e counter_is_zero_div $end
$var wire 1 f counter_decr_div $end
$scope module ctrl $end
$var wire 1 K clk $end
$var wire 1 T divreq_val $end
$var wire 1 F divresp_rdy $end
$var wire 1 N reset $end
$var wire 1 e counter_is_zero_div $end
$var reg 1 f counter_decr_div $end
$var reg 1 _ divreq_rdy $end
$var reg 1 ] divresp_val $end
$var reg 2 g next_state_div [1:0] $end
$var reg 1 c perform_load_div $end
$var reg 1 b perform_shift_op_div $end
$var reg 2 h state_div [1:0] $end
$upscope $end
$scope module dpath $end
$var wire 1 K clk $end
$var wire 1 f counter_decr_div $end
$var wire 32 i divreq_msg_a [31:0] $end
$var wire 32 j divreq_msg_b [31:0] $end
$var wire 1 S divreq_msg_fn $end
$var wire 1 _ divreq_rdy $end
$var wire 1 T divreq_val $end
$var wire 1 F divresp_rdy $end
$var wire 1 ] divresp_val $end
$var wire 1 c perform_load_div $end
$var wire 1 b perform_shift_op_div $end
$var wire 1 N reset $end
$var wire 1 k sign_op $end
$var wire 32 l unsigned_remainder [31:0] $end
$var wire 32 m unsigned_quotient [31:0] $end
$var wire 32 n unsigned_b [31:0] $end
$var wire 32 o unsigned_a [31:0] $end
$var wire 1 p sign_bit_b $end
$var wire 1 q sign_bit_a $end
$var wire 32 r output_remainder [31:0] $end
$var wire 32 s output_quotient [31:0] $end
$var wire 64 t divresp_msg_result [63:0] $end
$var wire 65 u diff_a_b [64:0] $end
$var wire 1 e counter_is_zero_div $end
$var wire 65 v a_shifted [64:0] $end
$var reg 65 w a_reg [64:0] $end
$var reg 65 x b_reg [64:0] $end
$var reg 5 y counter_reg [4:0] $end
$var reg 65 z diff [64:0] $end
$var reg 1 { sign_a_reg $end
$var reg 1 | sign_b_reg $end
$var reg 1 } sign_result_reg $end
$upscope $end
$upscope $end
$scope module imul $end
$var wire 1 K clk $end
$var wire 32 ~ mulreq_msg_a [31:0] $end
$var wire 32 !" mulreq_msg_b [31:0] $end
$var wire 1 X mulreq_val $end
$var wire 1 F mulresp_rdy $end
$var wire 1 N reset $end
$var wire 1 "" perform_shift_op $end
$var wire 1 #" perform_load $end
$var wire 1 $" perform_add_op $end
$var wire 1 Y mulresp_val $end
$var wire 64 %" mulresp_msg_result [63:0] $end
$var wire 1 [ mulreq_rdy $end
$var wire 1 &" lsb $end
$var wire 1 '" counter_is_zero $end
$var wire 1 (" counter_decr $end
$scope module ctrl $end
$var wire 1 K clk $end
$var wire 1 X mulreq_val $end
$var wire 1 F mulresp_rdy $end
$var wire 1 $" perform_add_op $end
$var wire 1 N reset $end
$var wire 1 &" lsb $end
$var wire 1 '" counter_is_zero $end
$var reg 1 (" counter_decr $end
$var reg 1 [ mulreq_rdy $end
$var reg 1 Y mulresp_val $end
$var reg 2 )" next_state [1:0] $end
$var reg 1 #" perform_load $end
$var reg 1 "" perform_shift_op $end
$var reg 2 *" state [1:0] $end
$upscope $end
$scope module dpath $end
$var wire 1 K clk $end
$var wire 1 (" counter_decr $end
$var wire 32 +" mulreq_msg_a [31:0] $end
$var wire 32 ," mulreq_msg_b [31:0] $end
$var wire 1 [ mulreq_rdy $end
$var wire 1 X mulreq_val $end
$var wire 64 -" mulresp_msg_result [63:0] $end
$var wire 1 F mulresp_rdy $end
$var wire 1 Y mulresp_val $end
$var wire 1 $" perform_add_op $end
$var wire 1 #" perform_load $end
$var wire 1 "" perform_shift_op $end
$var wire 1 N reset $end
$var wire 32 ." unsigned_b [31:0] $end
$var wire 32 /" unsigned_a [31:0] $end
$var wire 64 0" signed_result [63:0] $end
$var wire 1 1" sign_bit_b $end
$var wire 1 2" sign_bit_a $end
$var wire 1 &" lsb $end
$var wire 1 '" counter_is_zero $end
$var reg 64 3" a_reg [63:0] $end
$var reg 32 4" b_reg [31:0] $end
$var reg 5 5" counter_reg [4:0] $end
$var reg 64 6" result_reg [63:0] $end
$var reg 1 7" sign_result_reg $end
$upscope $end
$upscope $end
$upscope $end
$upscope $end
$enddefinitions $end
$comment Show the parameter values. $end
$dumpall
b100 A
b11 @
b0 ?
b10 >
b1 =
0.
1-
$end
#0
$dumpvars
x7"
bx 6"
bx 5"
bx 4"
bx 3"
x2"
x1"
bx 0"
bx /"
bx ."
bx -"
bx ,"
bx +"
bx *"
bx )"
0("
x'"
x&"
bx %"
x$"
0#"
0""
bx !"
bx ~
x}
x|
x{
bx z
bx y
bx x
bx w
bx0 v
bx u
bx t
bx s
bx r
xq
xp
bx o
bx n
bx m
bx l
xk
bx j
bx i
bx h
b0 g
0f
xe
bx d
0c
0b
bx a
bx `
0_
bx ^
0]
bx \
0[
bx Z
0Y
0X
bx W
bx V
bx U
0T
xS
0R
bx Q
bx P
bx O
1N
bx M
b0 L
0K
0J
bx I
0H
0G
1F
0E
0D
b11111100111111 C
b111010101101110011001000110010101100110011010010110111001100101011001000010000001100110011101010110111001100011 B
bz <
bz ;
bz :
bz 9
bz 8
bz 7
bz 6
bz 5
bz 4
bz 3
bz 2
bz 1
b11111100111111 0
b111010101101110011001000110010101100110011010010110111001100101011001000010000001100110011101010110111001100011 /
bz ,
bz +
z*
bz )
bz (
z'
bz &
bz %
bz $
bz #
z"
bz !
$end
#5
b0 s
b0 ^
b0 d
b0 t
b0 r
1G
0$"
0&"
b0 Z
b0 %"
b0 -"
b0 0"
1[
b0 )"
b0 u
b0 v
b0 m
b0 l
1_
07"
b0 4"
b0 3"
0'"
b11111 5"
b0 6"
b0 *"
0|
0{
0}
b0 z
b0 x
b0 w
0e
b11111 y
b0 h
1K
#10
1c
b1 g
1_
b11111111111111111011000101001010 n
b100111010110110 ."
b1010000000011011000001000100 o
b1010000000011011000001000100 /"
1T
0k
1D
1p
11"
0q
02"
0S
0K
1R
b11111111111111111011000101001010 P
b11111111111111111011000101001010 V
b11111111111111111011000101001010 a
b11111111111111111011000101001010 j
b11111111111111111011000101001010 !"
b11111111111111111011000101001010 ,"
b1010000000011011000001000100 O
b1010000000011011000001000100 U
b1010000000011011000001000100 `
b1010000000011011000001000100 i
b1010000000011011000001000100 ~
b1010000000011011000001000100 +"
b100 Q
b100 W
b1110010011001010110110101110101 M
0N
#15
0T
0G
b1010000000011011000001000100 ^
b1010000000011011000001000100 d
b1010000000011011000001000100 t
b1010000000011011000001000100 s
0D
1f
1b
0_
0c
b10100000000110110000010001000 v
b1010000000011011000001000100 m
b1 L
0R
1J
b1 h
1|
b10000000000000000010011101011011000010100000000110110000010001000 u
b1111111111111111101100010100101000000000000000000000000000000000 x
b1010000000011011000001000100 w
1K
#20
0K
#25
b10100000000110110000010001000 ^
b10100000000110110000010001000 d
b10100000000110110000010001000 t
b10100000000110110000010001000 s
b10000000000000000010011101011011000101000000001101100000100010000 u
b101000000001101100000100010000 v
b10100000000110110000010001000 m
b11110 y
b10100000000110110000010001000 w
b10 L
1K
#30
0K
#35
b101000000001101100000100010000 ^
b101000000001101100000100010000 d
b101000000001101100000100010000 t
b101000000001101100000100010000 s
b10000000000000000010011101011011001010000000011011000001000100000 u
b1010000000011011000001000100000 v
b101000000001101100000100010000 m
b11 L
b11101 y
b101000000001101100000100010000 w
1K
#40
0K
#45
b1010000000011011000001000100000 ^
b1010000000011011000001000100000 d
b1010000000011011000001000100000 t
b1010000000011011000001000100000 s
b10000000000000000010011101011011010100000000110110000010001000000 u
b10100000000110110000010001000000 v
b1010000000011011000001000100000 m
b11100 y
b1010000000011011000001000100000 w
b100 L
1K
#50
0K
#55
b10100000000110110000010001000000 ^
b10100000000110110000010001000000 d
b10100000000110110000010001000000 t
b10100000000110110000010001000000 s
b10000000000000000010011101011011101000000001101100000100010000000 u
b101000000001101100000100010000000 v
b10100000000110110000010001000000 m
b101 L
b11011 y
b10100000000110110000010001000000 w
1K
#60
0K
#65
b1000000001101100000100010000000 s
b101000000001101100000100010000000 ^
b101000000001101100000100010000000 d
b101000000001101100000100010000000 t
b1 r
b10000000000000000010011101011100010000000011011000001000100000000 u
b1010000000011011000001000100000000 v
b1000000001101100000100010000000 m
b1 l
b11010 y
b101000000001101100000100010000000 w
b110 L
1K
#70
0K
#75
b10000000011011000001000100000000 s
b1010000000011011000001000100000000 ^
b1010000000011011000001000100000000 d
b1010000000011011000001000100000000 t
b10 r
b10000000000000000010011101011101100000000110110000010001000000000 u
b10100000000110110000010001000000000 v
b10000000011011000001000100000000 m
b10 l
b111 L
b11001 y
b1010000000011011000001000100000000 w
1K
#80
0K
#85
b110110000010001000000000 s
b10100000000110110000010001000000000 ^
b10100000000110110000010001000000000 d
b10100000000110110000010001000000000 t
b101 r
b10000000000000000010011101100000000000001101100000100010000000000 u
b101000000001101100000100010000000000 v
b110110000010001000000000 m
b101 l
b11000 y
b10100000000110110000010001000000000 w
b1000 L
1K
#90
0K
#95
b1101100000100010000000000 s
b101000000001101100000100010000000000 ^
b101000000001101100000100010000000000 d
b101000000001101100000100010000000000 t
b1010 r
b10000000000000000010011101100101000000011011000001000100000000000 u
b1010000000011011000001000100000000000 v
b1101100000100010000000000 m
b1010 l
b1001 L
b10111 y
b101000000001101100000100010000000000 w
1K
#100
0K
#105
b11011000001000100000000000 s
b1010000000011011000001000100000000000 ^
b1010000000011011000001000100000000000 d
b1010000000011011000001000100000000000 t
b10100 r
b10000000000000000010011101101111000000110110000010001000000000000 u
b10100000000110110000010001000000000000 v
b11011000001000100000000000 m
b10100 l
b10110 y
b1010000000011011000001000100000000000 w
b1010 L
1K
#110
0K
#115
b110110000010001000000000000 s
b10100000000110110000010001000000000000 ^
b10100000000110110000010001000000000000 d
b10100000000110110000010001000000000000 t
b101000 r
b10000000000000000010011110000011000001101100000100010000000000000 u
b101000000001101100000100010000000000000 v
b110110000010001000000000000 m
b101000 l
b1011 L
b10101 y
b10100000000110110000010001000000000000 w
1K
#120
0K
#125
b1101100000100010000000000000 s
b101000000001101100000100010000000000000 ^
b101000000001101100000100010000000000000 d
b101000000001101100000100010000000000000 t
b1010000 r
b10000000000000000010011110101011000011011000001000100000000000000 u
b1010000000011011000001000100000000000000 v
b1101100000100010000000000000 m
b1010000 l
b10100 y
b101000000001101100000100010000000000000 w
b1100 L
1K
#130
0K
#135
b11011000001000100000000000000 s
b1010000000011011000001000100000000000000 ^
b1010000000011011000001000100000000000000 d
b1010000000011011000001000100000000000000 t
b10100000 r
b10000000000000000010011111111011000110110000010001000000000000000 u
b10100000000110110000010001000000000000000 v
b11011000001000100000000000000 m
b10100000 l
b1101 L
b10011 y
b1010000000011011000001000100000000000000 w
1K
#140
0K
#145
b110110000010001000000000000000 s
b10100000000110110000010001000000000000000 ^
b10100000000110110000010001000000000000000 d
b10100000000110110000010001000000000000000 t
b101000000 r
b10000000000000000010100010011011001101100000100010000000000000000 u
b101000000001101100000100010000000000000000 v
b110110000010001000000000000000 m
b101000000 l
b10010 y
b10100000000110110000010001000000000000000 w
b1110 L
1K
#150
0K
#155
b1101100000100010000000000000000 s
b101000000001101100000100010000000000000000 ^
b101000000001101100000100010000000000000000 d
b101000000001101100000100010000000000000000 t
b1010000000 r
b10000000000000000010100111011011011011000001000100000000000000000 u
b1010000000011011000001000100000000000000000 v
b1101100000100010000000000000000 m
b1010000000 l
b1111 L
b10001 y
b101000000001101100000100010000000000000000 w
1K
#160
0K
#165
b11011000001000100000000000000000 s
b1010000000011011000001000100000000000000000 ^
b1010000000011011000001000100000000000000000 d
b1010000000011011000001000100000000000000000 t
b10100000000 r
b10000000000000000010110001011011110110000010001000000000000000000 u
b10100000000110110000010001000000000000000000 v
b11011000001000100000000000000000 m
b10100000000 l
b10000 y
b1010000000011011000001000100000000000000000 w
b10000 L
1K
#170
0K
#175
b10110000010001000000000000000000 s
b10100000000110110000010001000000000000000000 ^
b10100000000110110000010001000000000000000000 d
b10100000000110110000010001000000000000000000 t
b101000000001 r
b10000000000000000011000101011100101100000100010000000000000000000 u
b101000000001101100000100010000000000000000000 v
b10110000010001000000000000000000 m
b101000000001 l
b10001 L
b1111 y
b10100000000110110000010001000000000000000000 w
1K
#180
0K
#185
b1100000100010000000000000000000 s
b101000000001101100000100010000000000000000000 ^
b101000000001101100000100010000000000000000000 d
b101000000001101100000100010000000000000000000 t
b1010000000011 r
b10000000000000000011101101011110011000001000100000000000000000000 u
b1010000000011011000001000100000000000000000000 v
b1100000100010000000000000000000 m
b1010000000011 l
b1110 y
b101000000001101100000100010000000000000000000 w
b10010 L
1K
#190
0K
#195
b11000001000100000000000000000000 s
b1010000000011011000001000100000000000000000000 ^
b1010000000011011000001000100000000000000000000 d
b1010000000011011000001000100000000000000000000 t
b10100000000110 r
b10000000000000000100111101100001110000010001000000000000000000000 u
b10100000000110110000010001000000000000000000000 v
b11000001000100000000000000000000 m
b10100000000110 l
b10011 L
b1101 y
b1010000000011011000001000100000000000000000000 w
1K
#200
0K
#205
b10000010001000000000000000000000 s
b10100000000110110000010001000000000000000000000 ^
b10100000000110110000010001000000000000000000000 d
b10100000000110110000010001000000000000000000000 t
b101000000001101 r
b10000000000000000111011101101000100000100010000000000000000000000 u
b101000000001101100000100010000000000000000000000 v
b10000010001000000000000000000000 m
b101000000001101 l
b1100 y
b10100000000110110000010001000000000000000000000 w
b10100 L
1K
#210
0K
#215
b100010000000000000000000000 s
b101000000001101100000100010000000000000000000000 ^
b101000000001101100000100010000000000000000000000 d
b101000000001101100000100010000000000000000000000 t
b1010000000011011 r
b10000000000000001100011101110110000001000100000000000000000000000 u
b1010000000011011000001000100000000000000000000000 v
b100010000000000000000000000 m
b1010000000011011 l
b10101 L
b1011 y
b101000000001101100000100010000000000000000000000 w
1K
#220
0K
#225
b1000100000000000000000000000 s
b1010000000011011000001000100000000000000000000000 ^
b1010000000011011000001000100000000000000000000000 d
b1010000000011011000001000100000000000000000000000 t
b10100000000110110 r
b10000000000000010110011110010001000010001000000000000000000000000 u
b10100000000110110000010001000000000000000000000000 v
b1000100000000000000000000000 m
b10100000000110110 l
b1010 y
b1010000000011011000001000100000000000000000000000 w
b10110 L
1K
#230
0K
#235
b10001000000000000000000000000 s
b10100000000110110000010001000000000000000000000000 ^
b10100000000110110000010001000000000000000000000000 d
b10100000000110110000010001000000000000000000000000 t
b101000000001101100 r
b10000000000000101010011111000111000100010000000000000000000000000 u
b101000000001101100000100010000000000000000000000000 v
b10001000000000000000000000000 m
b101000000001101100 l
b10111 L
b1001 y
b10100000000110110000010001000000000000000000000000 w
1K
#240
0K
#245
b100010000000000000000000000000 s
b101000000001101100000100010000000000000000000000000 ^
b101000000001101100000100010000000000000000000000000 d
b101000000001101100000100010000000000000000000000000 t
b1010000000011011000 r
b10000000000001010010100000110011001000100000000000000000000000000 u
b1010000000011011000001000100000000000000000000000000 v
b100010000000000000000000000000 m
b1010000000011011000 l
b1000 y
b101000000001101100000100010000000000000000000000000 w
b11000 L
1K
#250
0K
#255
b1000100000000000000000000000000 s
b1010000000011011000001000100000000000000000000000000 ^
b1010000000011011000001000100000000000000000000000000 d
b1010000000011011000001000100000000000000000000000000 t
b10100000000110110000 r
b10000000000010100010100100001011010001000000000000000000000000000 u
b10100000000110110000010001000000000000000000000000000 v
b1000100000000000000000000000000 m
b10100000000110110000 l
b11001 L
b111 y
b1010000000011011000001000100000000000000000000000000 w
1K
#260
0K
#265
b10001000000000000000000000000000 s
b10100000000110110000010001000000000000000000000000000 ^
b10100000000110110000010001000000000000000000000000000 d
b10100000000110110000010001000000000000000000000000000 t
b101000000001101100000 r
b10000000000101000010101010111011100010000000000000000000000000000 u
b101000000001101100000100010000000000000000000000000000 v
b10001000000000000000000000000000 m
b101000000001101100000 l
b110 y
b10100000000110110000010001000000000000000000000000000 w
b11010 L
1K
#270
0K
#275
b10000000000000000000000000000 s
b101000000001101100000100010000000000000000000000000000 ^
b101000000001101100000100010000000000000000000000000000 d
b101000000001101100000100010000000000000000000000000000 t
b1010000000011011000001 r
b10000000001010000010111000011100000100000000000000000000000000000 u
b1010000000011011000001000100000000000000000000000000000 v
b10000000000000000000000000000 m
b1010000000011011000001 l
b11011 L
b101 y
b101000000001101100000100010000000000000000000000000000 w
1K
#280
0K
#285
b100000000000000000000000000000 s
b1010000000011011000001000100000000000000000000000000000 ^
b1010000000011011000001000100000000000000000000000000000 d
b1010000000011011000001000100000000000000000000000000000 t
b10100000000110110000010 r
b10000000010100000011010011011101001000000000000000000000000000000 u
b10100000000110110000010001000000000000000000000000000000 v
b100000000000000000000000000000 m
b10100000000110110000010 l
b100 y
b1010000000011011000001000100000000000000000000000000000 w
b11100 L
1K
#290
0K
#295
b1000000000000000000000000000000 s
b10100000000110110000010001000000000000000000000000000000 ^
b10100000000110110000010001000000000000000000000000000000 d
b10100000000110110000010001000000000000000000000000000000 t
b101000000001101100000100 r
b10000000101000000100001001011111010000000000000000000000000000000 u
b101000000001101100000100010000000000000000000000000000000 v
b1000000000000000000000000000000 m
b101000000001101100000100 l
b11101 L
b11 y
b10100000000110110000010001000000000000000000000000000000 w
1K
#300
0K
#305
b10000000000000000000000000000000 s
b101000000001101100000100010000000000000000000000000000000 ^
b101000000001101100000100010000000000000000000000000000000 d
b101000000001101100000100010000000000000000000000000000000 t
b1010000000011011000001000 r
b10000001010000000101110101100011100000000000000000000000000000000 u
b1010000000011011000001000100000000000000000000000000000000 v
b10000000000000000000000000000000 m
b1010000000011011000001000 l
b10 y
b101000000001101100000100010000000000000000000000000000000 w
b11110 L
1K
#310
0K
#315
b0 s
b1010000000011011000001000100000000000000000000000000000000 ^
b1010000000011011000001000100000000000000000000000000000000 d
b1010000000011011000001000100000000000000000000000000000000 t
b10100000000110110000010001 r
b10000010100000001001001101101100000000000000000000000000000000000 u
b10100000000110110000010001000000000000000000000000000000000 v
b0 m
b10100000000110110000010001 l
b11111 L
b1 y
b1010000000011011000001000100000000000000000000000000000000 w
1K
#320
0K
#325
b10100000000110110000010001000000000000000000000000000000000 ^
b10100000000110110000010001000000000000000000000000000000000 d
b10100000000110110000010001000000000000000000000000000000000 t
b101000000001101100000100010 r
b10 g
1f
1b
b10000101000000001111111101111101000000000000000000000000000000000 u
b101000000001101100000100010000000000000000000000000000000000 v
b101000000001101100000100010 l
1e
b0 y
b10100000000110110000010001000000000000000000000000000000000 w
b100000 L
1K
#330
0K
#335
b101000000001101100000100010000000000000000000000000000000000 I
b101000000001101100000100010000000000000000000000000000000000 \
1E
1H
b101000000001101100000100010000000000000000000000000000000000 ^
b101000000001101100000100010000000000000000000000000000000000 d
b101000000001101100000100010000000000000000000000000000000000 t
b1010000000011011000001000100 r
b0 g
1]
0f
0b
b10001010000000011101011110011111000000000000000000000000000000000 u
b1010000000011011000001000100000000000000000000000000000000000 v
b1010000000011011000001000100 l
b100001 L
b10 h
0e
b11111 y
b101000000001101100000100010000000000000000000000000000000000 w
1K
#340
0K
#345
bx I
bx \
0E
1G
0H
1_
0]
b0 h
1K
